\relax 
\@writefile{toc}{\contentsline {section}{\numberline {1}Pseudo-Zufallszahlen}{1}}
\@writefile{toc}{\contentsline {subsection}{\numberline {a)}}{1}}
\@writefile{lof}{\contentsline {figure}{\numberline {1}{\ignorespaces Mit dem linear kongurenten Generator erzeugte Verteilungen.}}{1}}
\@writefile{lof}{\contentsline {subfigure}{\numberline{(a)}{\ignorespaces {Seed (i) }}}{1}}
\@writefile{lof}{\contentsline {subfigure}{\numberline{(b)}{\ignorespaces {Seed (ii) }}}{1}}
\@writefile{lof}{\contentsline {subfigure}{\numberline{(c)}{\ignorespaces {Seed (iii)}}}{1}}
\@writefile{lof}{\contentsline {subfigure}{\numberline{(d)}{\ignorespaces {Seed (iv) }}}{1}}
\newlabel{some example}{{1}{1}}
\@writefile{toc}{\contentsline {subsection}{\numberline {b)}}{2}}
\@writefile{lof}{\contentsline {figure}{\numberline {2}{\ignorespaces Scatter Plots mit Paaren von aufeinanderfolgenden Zufallszahlen.}}{2}}
\@writefile{lof}{\contentsline {subfigure}{\numberline{(a)}{\ignorespaces {Seed (i) }}}{2}}
\@writefile{lof}{\contentsline {subfigure}{\numberline{(b)}{\ignorespaces {Seed (ii) }}}{2}}
\@writefile{lof}{\contentsline {subfigure}{\numberline{(c)}{\ignorespaces {Seed (iii)}}}{2}}
\@writefile{lof}{\contentsline {subfigure}{\numberline{(d)}{\ignorespaces {Seed (iv) }}}{2}}
\newlabel{some example}{{2}{2}}
\@writefile{toc}{\contentsline {subsection}{\numberline {c)}}{3}}
\@writefile{lof}{\contentsline {figure}{\numberline {3}{\ignorespaces Mit dem XOR Shift Algorithmus erzeugte Verteilungen, Links die 1D und 2D Verteilungen fürs erste Seed und rechts fürs zweite.}}{3}}
\@writefile{lof}{\contentsline {subfigure}{\numberline{(a)}{\ignorespaces {Seed 1}}}{3}}
\@writefile{lof}{\contentsline {subfigure}{\numberline{(b)}{\ignorespaces {Seed 2}}}{3}}
\@writefile{lof}{\contentsline {subfigure}{\numberline{(c)}{\ignorespaces {Seed 1 Korrelation}}}{3}}
\@writefile{lof}{\contentsline {subfigure}{\numberline{(d)}{\ignorespaces {Seed 2 Korrelation}}}{3}}
\newlabel{some example}{{3}{3}}
\@writefile{toc}{\contentsline {subsection}{\numberline {d)}}{4}}
\@writefile{lof}{\contentsline {figure}{\numberline {4}{\ignorespaces Die Rekursionsrate des XOR Shift Algorithmus in Abhängigkeit von $b$ und $c$ bei festem $a$=11.}}{4}}
\@writefile{lof}{\contentsline {subfigure}{\numberline{(a)}{\ignorespaces {Mit logarithmierter Z-Achse }}}{4}}
\@writefile{lof}{\contentsline {subfigure}{\numberline{(b)}{\ignorespaces {Mit linearer Z-Achse}}}{4}}
\newlabel{some example}{{4}{4}}
\@writefile{toc}{\contentsline {section}{\numberline {2}Generierung beliebiger Verteilungen}{5}}
\@writefile{toc}{\contentsline {subsection}{\numberline {a)}}{5}}
\newlabel{eqn:WKE}{{2}{5}}
\newlabel{eqn:Cos}{{6}{5}}
\@writefile{lof}{\contentsline {figure}{\numberline {5}{\ignorespaces Mit \textup  {\hbox {\mathsurround \z@ \normalfont  (\ignorespaces 6\hbox {}\unskip \@@italiccorr )}} erzeugte Verteilungen.}}{5}}
\@writefile{lof}{\contentsline {subfigure}{\numberline{(a)}{\ignorespaces {Mit u \in [0,1]}}}{5}}
\@writefile{lof}{\contentsline {subfigure}{\numberline{(b)}{\ignorespaces {Mit u \in [-1,1]}}}{5}}
\newlabel{fig:Cos}{{5}{5}}
\@writefile{toc}{\contentsline {subsection}{\numberline {b)}}{6}}
\newlabel{<+label+>}{{7}{6}}
\@writefile{lof}{\contentsline {figure}{\numberline {6}{\ignorespaces Mit Box-Müller erzeugte Normalverteilung.}}{6}}
\@writefile{toc}{\contentsline {subsection}{\numberline {c)}}{6}}
\@writefile{lof}{\contentsline {figure}{\numberline {7}{\ignorespaces Mit Nemann erzeugte Normalverteilung.}}{7}}
