\relax 
\@writefile{toc}{\contentsline {section}{\numberline {Aufgabe 2{section}:}Die 1D Heisenbergkette}{1}}
\@writefile{toc}{\contentsline {subsection}{\numberline {a)}Matrixdarstellung des Hamiltonoperators}{1}}
\@writefile{lof}{\contentsline {figure}{\numberline {1}{\ignorespaces Die Matrixdarstellung des Hamiltonoperators.}}{1}}
\newlabel{some example}{{1}{1}}
\@writefile{toc}{\contentsline {subsection}{\numberline {b)}Diagonalisierung des Hamiltonoperators}{1}}
\@writefile{lof}{\contentsline {figure}{\numberline {2}{\ignorespaces Diagonalisierter Hamiltonoperators.}}{2}}
\newlabel{some example}{{2}{2}}
\@writefile{toc}{\contentsline {subsection}{\numberline {c)}Laufzeitged\"ons}{2}}
\@writefile{lof}{\contentsline {figure}{\numberline {3}{\ignorespaces Laufzeit der Diagonalisierung in Abhängigkeit von N}}{3}}
\newlabel{some example}{{3}{3}}
