# Fdb version 3
["pdflatex"] 1528421119 "abgabe.tex" "tex_out/abgabe.pdf" "abgabe" 1528421121
  "/home/gott/.texlive/texmf-var/luatex-cache/generic/fonts/otl/lmroman10-regular.luc" 1522152582 134917 2028dd9b153e5b70f4905c1c05b9d0e7 ""
  "/home/gott/.texlive/texmf-var/luatex-cache/generic/fonts/otl/lmroman12-bold.luc" 1522152587 135877 0117494d25a8d9d79f48ae4b681bd42c ""
  "/home/gott/.texlive/texmf-var/luatex-cache/generic/fonts/otl/lmroman12-regular.luc" 1522152587 135280 6aac5e337e411b09c451e62378fc176a ""
  "/home/gott/.texlive/texmf-var/luatex-cache/generic/fonts/otl/lmroman17-regular.luc" 1525248982 129027 ee0d567a8bccbe896e217449c14b9fea ""
  "/usr/share/texmf-dist/fonts/opentype/public/lm/lmroman10-regular.otf" 1520157211 111536 ae9d1b331000d544f47e5223081b7b54 ""
  "/usr/share/texmf-dist/fonts/opentype/public/lm/lmroman12-bold.otf" 1520157211 110496 b9c8767d4cc3bf3f4b21f676bf89aa78 ""
  "/usr/share/texmf-dist/fonts/opentype/public/lm/lmroman12-regular.otf" 1520157211 110400 d844cffffa1af59f9d2bb1bfdb6f1a2c ""
  "/usr/share/texmf-dist/fonts/opentype/public/lm/lmroman17-regular.otf" 1520157211 110248 1d75fdc9dbe45e70de83ff6cc79a81c9 ""
  "/usr/share/texmf-dist/fonts/tfm/public/amsfonts/cmextra/cmex7.tfm" 1520157226 1004 54797486969f23fa377b128694d548df ""
  "/usr/share/texmf-dist/fonts/tfm/public/amsfonts/cmextra/cmex8.tfm" 1520157226 988 bdf658c3bfc2d96d3c8b02cfc1c94c20 ""
  "/usr/share/texmf-dist/fonts/tfm/public/cm/cmex10.tfm" 1520157226 992 662f679a0b3d2d53c1b94050fdaa3f50 ""
  "/usr/share/texmf-dist/fonts/tfm/public/cm/cmmi10.tfm" 1520157226 1528 abec98dbc43e172678c11b3b9031252a ""
  "/usr/share/texmf-dist/fonts/tfm/public/cm/cmmi12.tfm" 1520157226 1524 4414a8315f39513458b80dfc63bff03a ""
  "/usr/share/texmf-dist/fonts/tfm/public/cm/cmmi5.tfm" 1520157226 1508 3b32edd0d68f6498a5a375e78f9edc5e ""
  "/usr/share/texmf-dist/fonts/tfm/public/cm/cmmi6.tfm" 1520157226 1512 f21f83efb36853c0b70002322c1ab3ad ""
  "/usr/share/texmf-dist/fonts/tfm/public/cm/cmmi7.tfm" 1520157226 1528 e2423ae06dc7dee599cceb79d1c9dc32 ""
  "/usr/share/texmf-dist/fonts/tfm/public/cm/cmmi8.tfm" 1520157226 1520 eccf95517727cb11801f4f1aee3a21b4 ""
  "/usr/share/texmf-dist/fonts/tfm/public/cm/cmr10.tfm" 1520157226 1296 45809c5a464d5f32c8f98ba97c1bb47f ""
  "/usr/share/texmf-dist/fonts/tfm/public/cm/cmr12.tfm" 1520157226 1288 655e228510b4c2a1abe905c368440826 ""
  "/usr/share/texmf-dist/fonts/tfm/public/cm/cmr5.tfm" 1520157226 1220 ad296dff3c8796c18053ab7b9f86ad7c ""
  "/usr/share/texmf-dist/fonts/tfm/public/cm/cmr6.tfm" 1520157226 1300 b62933e007d01cfd073f79b963c01526 ""
  "/usr/share/texmf-dist/fonts/tfm/public/cm/cmr7.tfm" 1520157226 1300 53d07721103816e093902637bc167021 ""
  "/usr/share/texmf-dist/fonts/tfm/public/cm/cmr8.tfm" 1520157226 1292 21c1c5bfeaebccffdb478fd231a0997d ""
  "/usr/share/texmf-dist/fonts/tfm/public/cm/cmss10.tfm" 1520157226 1316 b636689f1933f24d1294acdf6041daaa ""
  "/usr/share/texmf-dist/fonts/tfm/public/cm/cmss12.tfm" 1520157226 1324 37b971caf729d7edd9cbb9f9b0ea76eb ""
  "/usr/share/texmf-dist/fonts/tfm/public/cm/cmss8.tfm" 1520157226 1296 d77f431d10d47c8ea2cc18cf45346274 ""
  "/usr/share/texmf-dist/fonts/tfm/public/cm/cmsy10.tfm" 1520157226 1124 6c73e740cf17375f03eec0ee63599741 ""
  "/usr/share/texmf-dist/fonts/tfm/public/cm/cmsy5.tfm" 1520157226 1112 14d5d5f6bd3c949edecb5b872f295553 ""
  "/usr/share/texmf-dist/fonts/tfm/public/cm/cmsy6.tfm" 1520157226 1116 933a60c408fc0a863a92debe84b2d294 ""
  "/usr/share/texmf-dist/fonts/tfm/public/cm/cmsy7.tfm" 1520157226 1120 2b3f9b25605010c69bc328bea6ac000f ""
  "/usr/share/texmf-dist/fonts/tfm/public/cm/cmsy8.tfm" 1520157226 1120 8b7d695260f3cff42e636090a8002094 ""
  "/usr/share/texmf-dist/fonts/tfm/public/cm/cmtt10.tfm" 1520157225 768 1321e9409b4137d6fb428ac9dc956269 ""
  "/usr/share/texmf-dist/fonts/tfm/public/cm/cmtt12.tfm" 1520157225 772 9a936b7f5e2ff0557fce0f62822f0bbf ""
  "/usr/share/texmf-dist/fonts/tfm/public/cm/cmtt8.tfm" 1520157225 768 d7b9a2629a0c353102ad947dc9221d49 ""
  "/usr/share/texmf-dist/fonts/type1/public/amsfonts/cm/cmmi10.pfb" 1520157213 36299 5f9df58c2139e7edcf37c8fca4bd384d ""
  "/usr/share/texmf-dist/fonts/type1/public/amsfonts/cm/cmmi7.pfb" 1520157213 36281 c355509802a035cadc5f15869451dcee ""
  "/usr/share/texmf-dist/fonts/type1/public/amsfonts/cm/cmr10.pfb" 1520157213 35752 024fb6c41858982481f6968b5fc26508 ""
  "/usr/share/texmf-dist/fonts/type1/public/amsfonts/cm/cmsy10.pfb" 1520157213 32569 5e5ddc8df908dea60932f3c484a54c0d ""
  "/usr/share/texmf-dist/tex/context/base/mkii/supp-pdf.mkii" 1520157251 71627 94eb9990bed73c364d7f53f960cc8c5b ""
  "/usr/share/texmf-dist/tex/generic/ifxetex/ifxetex.sty" 1520157235 1458 43ab4710dc82f3edeabecd0d099626b2 ""
  "/usr/share/texmf-dist/tex/generic/oberdiek/etexcmds.sty" 1520157236 7612 729a8cc22a1ee0029997c7f74717ae05 ""
  "/usr/share/texmf-dist/tex/generic/oberdiek/ifluatex.sty" 1520157236 7324 2310d1247db0114eb4726807c8837a0e ""
  "/usr/share/texmf-dist/tex/generic/oberdiek/ifpdf.sty" 1520157236 1251 d170e11a3246c3392bc7f59595af42cb ""
  "/usr/share/texmf-dist/tex/generic/oberdiek/infwarerr.sty" 1520157236 8253 473e0e41f9adadb1977e8631b8f72ea6 ""
  "/usr/share/texmf-dist/tex/generic/oberdiek/kvdefinekeys.sty" 1520157236 5152 b67a3a964ad9851e095110c854a1d461 ""
  "/usr/share/texmf-dist/tex/generic/oberdiek/kvsetkeys.sty" 1520157236 14040 ac8866aac45982ac84021584b0abb252 ""
  "/usr/share/texmf-dist/tex/generic/oberdiek/ltxcmds.sty" 1520157236 18425 5b3c0c59d76fac78978b5558e83c1f36 ""
  "/usr/share/texmf-dist/tex/generic/oberdiek/pdftexcmds.sty" 1520157236 20151 787afc7acba22d228640bdc06ce1177c ""
  "/usr/share/texmf-dist/tex/generic/unicode-data/CaseFolding.txt" 1520157234 78161 7893b6e005c5a521319a0d12062ae122 ""
  "/usr/share/texmf-dist/tex/generic/unicode-data/SpecialCasing.txt" 1520157234 16830 e49d6f1fe536f43762ba1ecfe9e53e12 ""
  "/usr/share/texmf-dist/tex/generic/unicode-data/UnicodeData.txt" 1520157234 1735010 2a52f30695dcc821f0f224650552beaf ""
  "/usr/share/texmf-dist/tex/latex/amsmath/amsbsy.sty" 1520157234 2210 5c54ab129b848a5071554186d0168766 ""
  "/usr/share/texmf-dist/tex/latex/amsmath/amsgen.sty" 1520157234 4160 c115536cf8d4ff25aa8c1c9bc4ecb79a ""
  "/usr/share/texmf-dist/tex/latex/amsmath/amsmath.sty" 1520157234 84352 897a476d96a0681047a5b0f91178a3d2 ""
  "/usr/share/texmf-dist/tex/latex/amsmath/amsopn.sty" 1520157234 4115 318a66090112f3aa3f415aeb6fe8540f ""
  "/usr/share/texmf-dist/tex/latex/amsmath/amstext.sty" 1520157234 2431 fe3078ec12fc30287f568596f8e0b948 ""
  "/usr/share/texmf-dist/tex/latex/base/article.cls" 1520157233 19821 310da678527a7dfe2a02c88af38079b7 ""
  "/usr/share/texmf-dist/tex/latex/base/size10.clo" 1520157232 8292 e897c12e1e886ce77fe26afc5d470886 ""
  "/usr/share/texmf-dist/tex/latex/caption/caption3.sty" 1520157234 64866 1ea74c5f2d1685881497f021b8f186b2 ""
  "/usr/share/texmf-dist/tex/latex/float/float.sty" 1520157233 6749 16d2656a1984957e674b149555f1ea1d ""
  "/usr/share/texmf-dist/tex/latex/graphics-cfg/graphics.cfg" 1520157233 1224 978390e9c2234eab29404bc21b268d1e ""
  "/usr/share/texmf-dist/tex/latex/graphics-def/luatex.def" 1520157233 17337 8b3095c14728a2bab49dc6531392a3c0 ""
  "/usr/share/texmf-dist/tex/latex/graphics/graphics.sty" 1520157233 15275 7d676729b1bedd3e7f3c6717affb366c ""
  "/usr/share/texmf-dist/tex/latex/graphics/graphicx.sty" 1520157233 9066 649f2ccf62888e3d8c3e57256b70b8e1 ""
  "/usr/share/texmf-dist/tex/latex/graphics/keyval.sty" 1520157233 2594 d18d5e19aa8239cf867fa670c556d2e9 ""
  "/usr/share/texmf-dist/tex/latex/graphics/trig.sty" 1520157233 3980 0a268fbfda01e381fa95821ab13b6aee ""
  "/usr/share/texmf-dist/tex/latex/l3kernel/expl3-code.tex" 1520157233 865979 4e627d13dfa51060cef916f5bf16b57a ""
  "/usr/share/texmf-dist/tex/latex/l3kernel/expl3.sty" 1520157233 9854 30dd9ffac9577d887036852ef4c7ccc0 ""
  "/usr/share/texmf-dist/tex/latex/l3kernel/l3pdfmode.def" 1520157233 12836 6f78fd4e4ede5f794b4e9523f8e11191 ""
  "/usr/share/texmf-dist/tex/latex/l3packages/l3keys2e/l3keys2e.sty" 1520157233 4568 4c3ae08ebeee5fea01e0919e229c9b4d ""
  "/usr/share/texmf-dist/tex/latex/l3packages/xparse/xparse.sty" 1520157233 76828 accb53d91c291d3ec67841b8989ca15c ""
  "/usr/share/texmf-dist/tex/latex/latexconfig/epstopdf-sys.cfg" 1520157233 678 4792914a8f45be57bb98413425e4c7af ""
  "/usr/share/texmf-dist/tex/latex/oberdiek/epstopdf-base.sty" 1520157232 12095 5337833c991d80788a43d3ce26bd1c46 ""
  "/usr/share/texmf-dist/tex/latex/oberdiek/grfext.sty" 1520157232 7075 2fe3d848bba95f139de11ded085e74aa ""
  "/usr/share/texmf-dist/tex/latex/oberdiek/grffile.sty" 1520157232 13734 a9eb1247dae8f1d7566d4f438f82a6c5 ""
  "/usr/share/texmf-dist/tex/latex/oberdiek/kvoptions.sty" 1520157232 22417 1d9df1eb66848aa31b18a593099cf45c ""
  "/usr/share/texmf-dist/tex/latex/placeins/placeins.sty" 1520158239 4087 636308456f60d2b31cbf97867db5708d ""
  "/usr/share/texmf-dist/tex/latex/siunitx/siunitx-abbreviations.cfg" 1520158018 4669 0666eeed90b2307794a8c5f94440e058 ""
  "/usr/share/texmf-dist/tex/latex/siunitx/siunitx.sty" 1520158018 278830 8a6edd37cf149567964ca1ef50e6bd06 ""
  "/usr/share/texmf-dist/tex/latex/subfig/subfig.sty" 1520157231 21369 9ef165ca6df8815c92e693146a376c92 ""
  "/usr/share/texmf-dist/tex/latex/titling/titling.sty" 1520158238 7358 95ac619994bd30d405a74f3eca431c84 ""
  "/usr/share/texmf-dist/tex/latex/tools/array.sty" 1520157231 12396 d41f82b039f900e95f351e54ae740f31 ""
  "/usr/share/texmf-dist/tex/latex/translator/translator-basic-dictionary-English.dict" 1520157231 3435 0a4d096dde3f8fe682c2aedd33b8137d ""
  "/usr/share/texmf-dist/tex/latex/translator/translator.sty" 1520157231 8690 269ca424c32d015df5d558ef9752619d ""
  "/usr/share/texmf-dist/tex/luatex/lualibs/lualibs-basic.lua" 1520157229 2685 01cf68c81eccdf10366f3f84158d2bc8 ""
  "/usr/share/texmf-dist/tex/luatex/lualibs/lualibs-boolean.lua" 1520157229 1850 abe28515dd33e8f6c416c09bca351cf8 ""
  "/usr/share/texmf-dist/tex/luatex/lualibs/lualibs-compat.lua" 1520157229 603 398583cb619d20952d67edcedae41608 ""
  "/usr/share/texmf-dist/tex/luatex/lualibs/lualibs-dir.lua" 1520157229 17703 9ea92204a66366c1e44e5616f84f46a2 ""
  "/usr/share/texmf-dist/tex/luatex/lualibs/lualibs-extended.lua" 1520157229 4826 f09108bac11f85bb9fa04d868d666e63 ""
  "/usr/share/texmf-dist/tex/luatex/lualibs/lualibs-file.lua" 1520157229 20997 32d9ba0a5cdd3509a3847bb050bfb800 ""
  "/usr/share/texmf-dist/tex/luatex/lualibs/lualibs-function.lua" 1520157229 361 a7e68a9703c35238729da41a474e951b ""
  "/usr/share/texmf-dist/tex/luatex/lualibs/lualibs-gzip.lua" 1520157229 1211 9cdb8f316bdef565fb312b1099590701 ""
  "/usr/share/texmf-dist/tex/luatex/lualibs/lualibs-io.lua" 1520157229 10014 ee77e357f5965196f9559b8fcccc6e71 ""
  "/usr/share/texmf-dist/tex/luatex/lualibs/lualibs-lpeg.lua" 1520157229 37012 93b90b22d7d3600ddd9def9f3ad9a7bb ""
  "/usr/share/texmf-dist/tex/luatex/lualibs/lualibs-lua.lua" 1520157229 4535 5466b2db6d8cc3b9786a398bb4230ea1 ""
  "/usr/share/texmf-dist/tex/luatex/lualibs/lualibs-math.lua" 1520157229 974 51275e81c652e3fbd7d02b1c383d3049 ""
  "/usr/share/texmf-dist/tex/luatex/lualibs/lualibs-md5.lua" 1520157229 3248 8cad752e187261eabf9cde462a1eef81 ""
  "/usr/share/texmf-dist/tex/luatex/lualibs/lualibs-number.lua" 1520157229 5358 bacbf8f2ff767e317d6ac2ba5930ec6a ""
  "/usr/share/texmf-dist/tex/luatex/lualibs/lualibs-os.lua" 1520157229 15832 a5a96e495876a7ccea203ac3cdcac40b ""
  "/usr/share/texmf-dist/tex/luatex/lualibs/lualibs-package.lua" 1520157229 10587 ecf99777107151998d886199ef5589dd ""
  "/usr/share/texmf-dist/tex/luatex/lualibs/lualibs-set.lua" 1520157229 1923 17868172ce396e1c5d0e9a672b8bdcb9 ""
  "/usr/share/texmf-dist/tex/luatex/lualibs/lualibs-string.lua" 1520157229 5863 2ca01eeb225c09e73ff4f3a2d101827a ""
  "/usr/share/texmf-dist/tex/luatex/lualibs/lualibs-table.lua" 1520157229 37480 92978e5ea9ca13dae04fb606f5be4a1c ""
  "/usr/share/texmf-dist/tex/luatex/lualibs/lualibs-trac-inf.lua" 1520157229 6844 aeb4a209d048a47dc0526a1915da2258 ""
  "/usr/share/texmf-dist/tex/luatex/lualibs/lualibs-unicode.lua" 1520157229 37427 eb7ac141175e74f69b1f303064ed91f8 ""
  "/usr/share/texmf-dist/tex/luatex/lualibs/lualibs-url.lua" 1520157229 12531 555c5d1e1134654b5e5a679150cf11d2 ""
  "/usr/share/texmf-dist/tex/luatex/lualibs/lualibs-util-deb.lua" 1520157229 3898 dedc408152fed20d666d41b93124de05 ""
  "/usr/share/texmf-dist/tex/luatex/lualibs/lualibs-util-dim.lua" 1520157229 13522 456eee0716ac9758c73a82b638b97ef4 ""
  "/usr/share/texmf-dist/tex/luatex/lualibs/lualibs-util-fil.lua" 1520157229 5548 0573e91847e722ffe0fcdb465ba89e6b ""
  "/usr/share/texmf-dist/tex/luatex/lualibs/lualibs-util-jsn.lua" 1520157229 5291 07fff8fbc3b6542771b6f5ee9ce8c8c3 ""
  "/usr/share/texmf-dist/tex/luatex/lualibs/lualibs-util-lua.lua" 1520157229 5396 03f3d11a20846a41f46e89c4aebb457d ""
  "/usr/share/texmf-dist/tex/luatex/lualibs/lualibs-util-prs.lua" 1520157229 22883 9246f0f89dc599d472ce1b0b5ee9baee ""
  "/usr/share/texmf-dist/tex/luatex/lualibs/lualibs-util-sta.lua" 1520157229 9178 4840e537d4ecc144f7058d768e93715b ""
  "/usr/share/texmf-dist/tex/luatex/lualibs/lualibs-util-sto.lua" 1520157229 3926 bea61790df64287215ffa7dd1759a63f ""
  "/usr/share/texmf-dist/tex/luatex/lualibs/lualibs-util-str.lua" 1520157229 35499 513836cfea6a8027c1451a95bc74649f ""
  "/usr/share/texmf-dist/tex/luatex/lualibs/lualibs-util-tab.lua" 1520157229 28471 cb1ae792cb08c524e4bc09b4f005f7f8 ""
  "/usr/share/texmf-dist/tex/luatex/lualibs/lualibs-util-tpl.lua" 1520157229 7100 ccfb5023bc761673396964848d85b5e2 ""
  "/usr/share/texmf-dist/tex/luatex/luaotfload/luaotfload-characters.lua" 1520157250 1548690 99578c3eff8b68cae3da45a4a7cbfcf2 ""
  "/var/lib/texmf/web2c/luatex/lualatex.fmt" 1520454567 1351526 40cbf2d0e0ca2d0c30d3aed96ede376c ""
  "abgabe.tex" 1528420998 2402 18605b001f2a4546bc68eaa60f3440b7 ""
  "images/A2a.pdf" 1528419564 791151 0cc3036d1a012eb9493bc0c54a8cd6d5 ""
  "images/A2b.pdf" 1528419030 782207 85dc254f3b85619f5f54563b8a13691b ""
  "images/A2c.pdf" 1528421115 13317 4837bb587911163af617ef1be47ed043 ""
  "tex_out//abgabe.aux" 1528421120 859 fa0cc833ae50d39de0e9c4ac591e9950 ""
  "tex_out/abgabe.aux" 1528421120 859 fa0cc833ae50d39de0e9c4ac591e9950 ""
  (generated)
  "tex_out//abgabe.pdf"
  "tex_out//abgabe.log"
  "tex_out/abgabe.pdf"
  "tex_out//abgabe.aux"
  "tex_out/abgabe.log"
