\relax 
\@writefile{toc}{\contentsline {section}{\numberline {Aufgabe 2{section}:}Ising Modell in 2D}{1}}
\@writefile{toc}{\contentsline {subsection}{\numberline {a)}Momentaufnahmen der SpinMatrix}{1}}
\@writefile{lof}{\contentsline {figure}{\numberline {1}{\ignorespaces Momentaufnahmen der Spin Matrix für $\text  {k\_B} T = 1$ und für $\text  {k\_B} T = 3$ im Anfangs und im Endzustand.}}{1}}
\@writefile{lof}{\contentsline {subfigure}{\numberline{(a)}{\ignorespaces {$\text {k\_B} T = 1$ - Inital State}}}{1}}
\@writefile{lof}{\contentsline {subfigure}{\numberline{(b)}{\ignorespaces {$\text {k\_B} T = 3$ - Inital State}}}{1}}
\@writefile{lof}{\contentsline {subfigure}{\numberline{(c)}{\ignorespaces {$\text {k\_B} T = 1$ - Final State}}}{1}}
\@writefile{lof}{\contentsline {subfigure}{\numberline{(d)}{\ignorespaces {$\text {k\_B} T = 3$ - Final State}}}{1}}
\newlabel{some example}{{1}{1}}
\@writefile{toc}{\contentsline {subsection}{\numberline {b)}Mittlere Energie}{1}}
\@writefile{lof}{\contentsline {figure}{\numberline {2}{\ignorespaces Mitlere Energie der Spins in Abhängigkeit der Zeit für verschiedene Temperaturen.}}{2}}
\@writefile{lof}{\contentsline {subfigure}{\numberline{(a)}{\ignorespaces {$\text {k\_B} T = 1$}}}{2}}
\@writefile{lof}{\contentsline {subfigure}{\numberline{(b)}{\ignorespaces {$\text {k\_B} T = 2$}}}{2}}
\@writefile{lof}{\contentsline {subfigure}{\numberline{(c)}{\ignorespaces {$\text {k\_B} T = 3$}}}{2}}
\newlabel{some example}{{2}{2}}
\@writefile{toc}{\contentsline {subsection}{\numberline {c)}Magnetisierung}{2}}
\@writefile{lof}{\contentsline {figure}{\numberline {3}{\ignorespaces Die mittlere Magnetisierung der Spins für verschiedene Temperaturen. In jedem Plot ist einmal die Magnetisierung <m> und einmal der Betrag der Magnetisierung <|m|> dargestellt.}}{3}}
\@writefile{lof}{\contentsline {subfigure}{\numberline{(a)}{\ignorespaces {$\text {k\_B} T = 1$}}}{3}}
\@writefile{lof}{\contentsline {subfigure}{\numberline{(b)}{\ignorespaces {$\text {k\_B} T = 2$}}}{3}}
\@writefile{lof}{\contentsline {subfigure}{\numberline{(c)}{\ignorespaces {$\text {k\_B} T = 3$}}}{3}}
\newlabel{some example}{{3}{3}}
\@writefile{lof}{\contentsline {figure}{\numberline {4}{\ignorespaces Dieser ist die Magnetisierung bzw. der betrag der Magnetisierung in Abhängikeit der Temperatur zu sehen.}}{4}}
\newlabel{fig:asd}{{4}{4}}
\@writefile{toc}{\contentsline {subsection}{\numberline {d)}Spezifische Wärme}{5}}
\@writefile{lof}{\contentsline {figure}{\numberline {5}{\ignorespaces Spezifische Wärme in Abhängikeit der Temperatur}}{5}}
\newlabel{fig:asd}{{5}{5}}
