\relax 
\@writefile{toc}{\contentsline {section}{\numberline {Aufgabe 1:}Monte-Carlo-Simulation eines einzelnen Spins}{1}}
\@writefile{toc}{\contentsline {subsection}{\numberline {a)}}{1}}
\@writefile{toc}{\contentsline {subsection}{\numberline {b)}}{1}}
\@writefile{lof}{\contentsline {figure}{\numberline {1}{\ignorespaces Magnetisierung eines Spins.}}{2}}
\newlabel{fig:<+label+>}{{1}{2}}
